…
### File loading
Now we will load the first file in the `results` folder using `load_single()`. The function removes all columns except the one defined in `columns = c(1:2)` and renames them to `t` and `y`. Then, it adds a `filename` column based on the file name of the data.

```{r eval=FALSE, warning=FALSE, message=FALSE}
file.list <- list.files(results.folder, pattern = "csv", full.names = TRUE)
df.1 <- load_single(file = file.list[1],
                    columns = c(1:2))
```
```
df.1
#> # A tibble: 129,001 x 3
#>        t       y filename                              
#>    <dbl>   <dbl> <chr>                                 
#>  1     0 0.00447 0979_ampdriftcorr
#>  2     1 0.00954 0979_ampdriftcorr
#>  3     2 0.0146  0979_ampdriftcorr
#>  4     3 0.0146  0979_ampdriftcorr
#>  5     4 0.00951 0979_ampdriftcorr
#>  6     5 0.00951 0979_ampdriftcorr
#>  7     6 0.00950 0979_ampdriftcorr
#>  8     7 0.00949 0979_ampdriftcorr
#>  9     8 0.00948 0979_ampdriftcorr
#> 10     9 0.00948 0979_ampdriftcorr
#> # ... with 128,991 more rows
```
```
unique(df.1$filename)
#> [1] "0979_ampdriftcorr"
```

Alternatively, We can rapidly load all files in the `results` folder by using `load_mult()`:
```{r eval=FALSE, warning=FALSE, message=FALSE}
df.all <- load_mult(folder = results.folder,
                    columns = c(1:2),
                    show.progress = TRUE)
```

```
df.all
#> # A tibble: 615,724 x 3
#>        t       y filename                              
#>    <dbl>   <dbl> <chr>                                 
#>  1     0 0.00447 0979_ampdriftcorr
#>  2     1 0.00954 0979_ampdriftcorr
#>  3     2 0.0146  0979_ampdriftcorr
#>  4     3 0.0146  0979_ampdriftcorr
#>  5     4 0.00951 0979_ampdriftcorr
#>  6     5 0.00951 0979_ampdriftcorr
#>  7     6 0.00950 0979_ampdriftcorr
#>  8     7 0.00949 0979_ampdriftcorr
#>  9     8 0.00948 0979_ampdriftcorr
#> 10     9 0.00948 0979_ampdriftcorr
#> # ... with 615,714 more rows
…
