forceR
…
File loading

Now we will load the first file in the results folder
using load_single(). The function removes all columns
except the one defined in columns = c(1:2) and renames them
to t and y. Then, it adds a
filename column based on the file name of the data.

file.list <- list.files(results.folder, pattern = "csv", full.names = TRUE)
df.1 <- load_single(file = file.list[1],
                    columns = c(1:2))

df.1
#> # A tibble: 129,001 x 3
#>        t       y filename                              
#>    <dbl>   <dbl> <chr>                                 
#>  1     0 0.00447 0979_ampdriftcorr
#>  2     1 0.00954 0979_ampdriftcorr
#>  3     2 0.0146  0979_ampdriftcorr
#>  4     3 0.0146  0979_ampdriftcorr
#>  5     4 0.00951 0979_ampdriftcorr
#>  6     5 0.00951 0979_ampdriftcorr
#>  7     6 0.00950 0979_ampdriftcorr
#>  8     7 0.00949 0979_ampdriftcorr
#>  9     8 0.00948 0979_ampdriftcorr
#> 10     9 0.00948 0979_ampdriftcorr
#> # ... with 128,991 more rows

unique(df.1$filename)
#> [1] "0979_ampdriftcorr"

Alternatively, We can rapidly load all files in the
results folder by using load_mult():

df.all <- load_mult(folder = results.folder,
                    columns = c(1:2),
                    show.progress = TRUE)

df.all
#> # A tibble: 615,724 x 3
#>        t       y filename                              
#>    <dbl>   <dbl> <chr>                                 
#>  1     0 0.00447 0979_ampdriftcorr
#>  2     1 0.00954 0979_ampdriftcorr
#>  3     2 0.0146  0979_ampdriftcorr
#>  4     3 0.0146  0979_ampdriftcorr
#>  5     4 0.00951 0979_ampdriftcorr
#>  6     5 0.00951 0979_ampdriftcorr
#>  7     6 0.00950 0979_ampdriftcorr
#>  8     7 0.00949 0979_ampdriftcorr
#>  9     8 0.00948 0979_ampdriftcorr
#> 10     9 0.00948 0979_ampdriftcorr
#> # ... with 615,714 more rows
…
df.summary.species <- df.summary.specimen %>%
  # find max Fs of species
  group_by(species) %>%
  # calculate force values for each species
  mutate(max.F.species = max(max.F.specimen),
         mean.F.species = round(mean(max.F.specimen),6),
         sdv.max.F.species = sd(max.F.specimen)) %>% 
  ungroup() %>% 
  # count specimens / species
  group_by(species) %>% 
  mutate(n.specimens.in.species = length(unique(specimen))) %>% 
  ungroup()
df.summary.species
#> # A tibble: 24 × 12
#>    measurement specimen  species max.F…¹ mean.…² max.F…³ sdv.m…⁴ n.mea…⁵ max.F…⁶
#>    <chr>       <chr>     <chr>     <dbl>   <dbl>   <dbl>   <dbl>   <int>   <dbl>
#>  1 m_01        specieme… specie…    1.24    1.24    1.24 0.00116       2    1.26
#>  2 m_02        specieme… specie…    1.24    1.24    1.24 0.00116       2    1.26
#>  3 m_03        specieme… specie…    1.13    1.13    1.13 0.00658       2    1.26
#>  4 m_04        specieme… specie…    1.12    1.13    1.13 0.00658       2    1.26
#>  5 m_05        specieme… specie…    1.09    1.18    1.26 0.117         2    1.26
#>  6 m_06        specieme… specie…    1.26    1.18    1.26 0.117         2    1.26
#>  7 m_07        specieme… specie…    2.19    2.10    2.19 0.125         2    2.44
#>  8 m_08        specieme… specie…    2.01    2.10    2.19 0.125         2    2.44
#>  9 m_09        specieme… specie…    2.27    2.28    2.29 0.0125        2    2.44
#> 10 m_10        specieme… specie…    2.29    2.28    2.29 0.0125        2    2.44
#> # … with 14 more rows, 3 more variables: mean.F.species <dbl>,
#> #   sdv.max.F.species <dbl>, n.specimens.in.species <int>, and abbreviated
#> #   variable names ¹​max.F.measurement, ²​mean.F.specimen, ³​max.F.specimen,
#> #   ⁴​sdv.max.F.specimen, ⁵​n.measurements.in.specimen, ⁶​max.F.species
…
